Starting Dynare (version 4.5.6).
Starting preprocessing of the model file ...
Found 7 equation(s).
Evaluating expressions...done
Computing static model derivatives:
 - order 1
Computing dynamic model derivatives:
 - order 1
Processing outputs ...
done
Preprocessing completed.

STEADY-STATE RESULTS:

C 		 0.792469
K 		 12.9041
Y 		 1.37256
w 		 2.02027
r 		 0.035101
L 		 0.455196
G 		 0.257493

STEADY-STATE RESULTS:

C 		 0.823007
K 		 12.9505
Y 		 1.3775
w 		 2.02027
r 		 0.035101
L 		 0.456833
G 		 0.230731

--------------------------------------------------------
MODEL SIMULATION:

Iter: 1,	 err. = 0.04685, 	 time = 0.019072
Iter: 2,	 err. = 5.054e-06, 	 time = 0.005341

Total time of simulation: 0.029399
--------------------------------------------------------

Perfect foresight solution found.

Total computing time : 0h00m00s
